{
  "href": "https://api.spotify.com/v1/albums/6XhjNHCyCDyyGJRM5mg40G/tracks?offset=0&limit=2",
  "items": [{
    "artists": [{
      "external_urls": {
        "spotify": "https://open.spotify.com/artist/0gxyHStUsqpMadRV0Di1Qt"
      },
      "href": "https://api.spotify.com/v1/artists/0gxyHStUsqpMadRV0Di1Qt",
      "id": "0gxyHStUsqpMadRV0Di1Qt",
      "name": "Rick Astley",
      "type": "artist",
      "uri": "spotify:artist:0gxyHStUsqpMadRV0Di1Qt"
    }],
    "available_markets": ["AR", "BO", "BR", "CA", "CH", "CL", "CO", "CR", "DO",
                          "EC", "GT", "HK", "HN", "ID", "JP", "LI", "MX", "MY",
                          "NI", "PA", "PE", "PH", "PY", "SG", "SV", "TW", "US",
                          "UY"],
    "disc_number": 1,
    "duration_ms": 212826,
    "explicit": false,
    "external_urls": {
      "spotify": "https://open.spotify.com/track/7GhIk7Il098yCjg4BQjzvb"
    },
    "href": "https://api.spotify.com/v1/tracks/7GhIk7Il098yCjg4BQjzvb",
    "id": "7GhIk7Il098yCjg4BQjzvb",
    "name": "Never Gonna Give You Up",
    "track_number": 1,
    "type": "track",
    "uri": "spotify:track:7GhIk7Il098yCjg4BQjzvb"
  }, {
    "artists": [{
      "external_urls": {
        "spotify": "https://open.spotify.com/artist/0gxyHStUsqpMadRV0Di1Qt"
      },
      "href": "https://api.spotify.com/v1/artists/0gxyHStUsqpMadRV0Di1Qt",
      "id": "0gxyHStUsqpMadRV0Di1Qt",
      "name": "Rick Astley",
      "type": "artist",
      "uri": "spotify:artist:0gxyHStUsqpMadRV0Di1Qt"
    }],
    "available_markets": ["AR", "BO", "BR", "CA", "CH", "CL", "CO", "CR", "DO",
                          "EC", "GT", "HK", "HN", "ID", "JP", "LI", "MX", "MY",
                          "NI", "PA", "PE", "PH", "PY", "SG", "SV", "TW", "US",
                          "UY"],
    "disc_number": 1,
    "duration_ms": 232960,
    "explicit": false,
    "external_urls": {
      "spotify": "https://open.spotify.com/track/5qUAdDl59w0Vbu4Gi6ecSX"
    },
    "href": "https://api.spotify.com/v1/tracks/5qUAdDl59w0Vbu4Gi6ecSX",
    "id": "5qUAdDl59w0Vbu4Gi6ecSX",
    "name": "Whenever You Need Somebody",
    "track_number": 2,
    "type": "track",
    "uri": "spotify:track:5qUAdDl59w0Vbu4Gi6ecSX"
  }],
  "limit": 2,
  "next": "https://api.spotify.com/v1/albums/6XhjNHCyCDyyGJRM5mg40G/tracks?offset=2&limit=2",
  "offset": 0,
  "previous": "null",
  "total": 10
}