{
  "albums": {
    "href": "https://api.spotify.com/v1/search?query=rick+astley&type=album&market=US&offset=0&limit=2",
    "items": [{
      "album_type": "album",
      "artists": [{
        "external_urls": {
          "spotify": "https://open.spotify.com/artist/0gxyHStUsqpMadRV0Di1Qt"
        },
        "href": "https://api.spotify.com/v1/artists/0gxyHStUsqpMadRV0Di1Qt",
        "id": "0gxyHStUsqpMadRV0Di1Qt",
        "name": "Rick Astley",
        "type": "artist",
        "uri": "spotify:artist:0gxyHStUsqpMadRV0Di1Qt"
      }],
      "available_markets": ["AR", "BO", "BR", "CA", "CH", "CL", "CO", "CR",
                            "DO", "EC", "GT", "HK", "HN", "ID", "JP", "LI",
                            "MX", "MY", "NI", "PA", "PE", "PH", "PY", "SG",
                            "SV", "TW", "US", "UY"],
      "external_urls": {
        "spotify": "https://open.spotify.com/album/6XhjNHCyCDyyGJRM5mg40G"
      },
      "href": "https://api.spotify.com/v1/albums/6XhjNHCyCDyyGJRM5mg40G",
      "id": "6XhjNHCyCDyyGJRM5mg40G",
      "images": [{
        "height": 640,
        "url": "https://i.scdn.co/image/15ac2c9091d9b74e841b281ceb23ca8208321444",
        "width": 640
      }, {
        "height": 300,
        "url": "https://i.scdn.co/image/90ed6823864381221c03dc3c9fc62d094e81dfb2",
        "width": 300
      }, {
        "height": 64,
        "url": "https://i.scdn.co/image/568017ab80000e71ca299909806898f75a948456",
        "width": 64
      }],
      "name": "Whenever You Need Somebody",
      "type": "album",
      "uri": "spotify:album:6XhjNHCyCDyyGJRM5mg40G"
    }, {
      "album_type": "compilation",
      "artists": [{
        "external_urls": {
          "spotify": "https://open.spotify.com/artist/0gxyHStUsqpMadRV0Di1Qt"
        },
        "href": "https://api.spotify.com/v1/artists/0gxyHStUsqpMadRV0Di1Qt",
        "id": "0gxyHStUsqpMadRV0Di1Qt",
        "name": "Rick Astley",
        "type": "artist",
        "uri": "spotify:artist:0gxyHStUsqpMadRV0Di1Qt"
      }],
      "available_markets": ["US"],
      "external_urls": {
        "spotify": "https://open.spotify.com/album/3vGtqTr5he9uQfusQWJ0oC"
      },
      "href": "https://api.spotify.com/v1/albums/3vGtqTr5he9uQfusQWJ0oC",
      "id": "3vGtqTr5he9uQfusQWJ0oC",
      "images": [{
        "height": 634,
        "url": "https://i.scdn.co/image/d0c3c73e7dc4c3ccf921e2f3c86969aa7181bcab",
        "width": 640
      }, {
        "height": 297,
        "url": "https://i.scdn.co/image/463e545ef86af314c4b7c79ff17892531a80770e",
        "width": 300
      }, {
        "height": 63,
        "url": "https://i.scdn.co/image/f0123bce1178d3c4fa991c55d88fea951fdff4e8",
        "width": 64
      }],
      "name": "Platinum & Gold Collection",
      "type": "album",
      "uri": "spotify:album:3vGtqTr5he9uQfusQWJ0oC"
    }],
    "limit": 2,
    "next": "https://api.spotify.com/v1/search?query=rick+astley&type=album&market=US&offset=2&limit=2",
    "offset": 0,
    "previous": "null",
    "total": 70
  }
}